6 求職人特質(含因素分析) | 求職服務範例 (108~112年)
…
        家庭暴力及性侵害被害人
1 (<0.1%)

        農業就獎計畫
1 (<0.1%)

        Unknown
643,006

      1 n (%)

    年_個案區分

## # A tibble: 83 × 6
##    區分名                   `2019` `2020` `2021` `2022` `2023`
##    <chr>                     <int>  <int>  <int>  <int>  <int>
##  1 <NA>                     142471 116259 119878 117129 147269
##  2 中高齡者                   7018   6984   6724   7186   9299
##  3 一般求職者                 8984   7596   6790   6136   7663
##  4 就保失業者                 7669   8447   7449   6587   8483
##  5 失業給付者                 7938   8370   7349   6648   8385
##  6 一般資遣員工               7587   8014   7194   6492   8157
##  7 非自願離職                 7320   7936   7029   6355   8116
##  8 青少年(十五歲至二十四歲)   4773   4080   5493   5443   6359
##  9 身心障礙者                  852    812    771   1058   1562
## 10 原住民                      496    452    506    674    926
## # ℹ 73 more rows
…
