3 資料清理 | 求職服務範例 (108~112年)
…
    X5y <- X5y %>% 
      mutate(居住區 = str_split_i(F$居住行政區,"市",2))
    
    X5y %>% group_by(居住區) %>%
      summarise(人數=n()) %>% arrange(desc(人數)) %>%
      mutate(prop = round(人數/sum(人數),3)) %>%
      filter(prop>0.001)

## # A tibble: 42 × 3
##    居住區  人數  prop
##    <chr>  <int> <dbl>
##  1 鳳山區 20576 0.125
##  2 三民區 18372 0.112
##  3 楠梓區 12023 0.073
##  4 左營區 10742 0.065
##  5 前鎮區 10216 0.062
##  6 苓雅區  8454 0.052
##  7 小港區  7570 0.046
##  8 大寮區  7468 0.046
##  9 鼓山區  6274 0.038
## 10 岡山區  5950 0.036
## # ℹ 32 more rows
…
    #障別
    X5y %>% count(障別)

## # A tibble: 35 × 2
##    障別                                n
##    <chr>                           <int>
##  1 上肢體障礙者                        1
##  2 上肢體障礙者;無                   100
##  3 下肢體障礙者                        4
##  4 下肢體障礙者;無                   200
##  5 先天代謝異常                        1
##  6 其他                                6
##  7 其他;無                            73
##  8 因罕見疾病而致身心功能障礙者;無     5
##  9 多重障礙者                          3
## 10 多重障礙者;無                     104
## # ℹ 25 more rows
…
